%YAML 1.1
%TAG !u! tag:unity3d.com,2011:
--- !u!74 &7400000
AnimationClip:
  m_ObjectHideFlags: 0
  m_PrefabParentObject: {fileID: 0}
  m_PrefabInternal: {fileID: 0}
  m_Name: GoofyMonsterFist
  serializedVersion: 6
  m_Legacy: 0
  m_Compressed: 0
  m_UseHighQualityCurve: 1
  m_RotationCurves: []
  m_CompressedRotationCurves: []
  m_EulerCurves: []
  m_PositionCurves: []
  m_ScaleCurves: []
  m_FloatCurves: []
  m_PPtrCurves:
  - curve:
    - time: 0
      value: {fileID: 21300000, guid: db5fc2a4fc237134083dfa190601d08d, type: 3}
    - time: 0.125
      value: {fileID: 21300000, guid: eed9bf787cfd96a44a92a88afe3a9916, type: 3}
    - time: 0.25
      value: {fileID: 21300000, guid: 928fa7cfe78460f409bf6a172423faf4, type: 3}
    - time: 0.375
      value: {fileID: 21300000, guid: 539b0073cea847f4cbeaa6ad2d1ee4fa, type: 3}
    - time: 0.5
      value: {fileID: 21300000, guid: 137a193c260d4604eb9f0e1b5f78d21b, type: 3}
    - time: 0.625
      value: {fileID: 21300000, guid: 8e1dc1964f7e68d4d8a844c0d87992fc, type: 3}
    - time: 0.75
      value: {fileID: 21300000, guid: 1c1d07aae52a748409907d217d9168f8, type: 3}
    - time: 0.875
      value: {fileID: 21300000, guid: 48a99ff0885f38443b682590e07bcd98, type: 3}
    - time: 1
      value: {fileID: 21300000, guid: f472a2f97f566d24b813f66c84e260be, type: 3}
    attribute: m_Sprite
    path: 
    classID: 212
    script: {fileID: 0}
  m_SampleRate: 8
  m_WrapMode: 0
  m_Bounds:
    m_Center: {x: 0, y: 0, z: 0}
    m_Extent: {x: 0, y: 0, z: 0}
  m_ClipBindingConstant:
    genericBindings:
    - serializedVersion: 2
      path: 0
      attribute: 0
      script: {fileID: 0}
      typeID: 212
      customType: 23
      isPPtrCurve: 1
    pptrCurveMapping:
    - {fileID: 21300000, guid: db5fc2a4fc237134083dfa190601d08d, type: 3}
    - {fileID: 21300000, guid: eed9bf787cfd96a44a92a88afe3a9916, type: 3}
    - {fileID: 21300000, guid: 928fa7cfe78460f409bf6a172423faf4, type: 3}
    - {fileID: 21300000, guid: 539b0073cea847f4cbeaa6ad2d1ee4fa, type: 3}
    - {fileID: 21300000, guid: 137a193c260d4604eb9f0e1b5f78d21b, type: 3}
    - {fileID: 21300000, guid: 8e1dc1964f7e68d4d8a844c0d87992fc, type: 3}
    - {fileID: 21300000, guid: 1c1d07aae52a748409907d217d9168f8, type: 3}
    - {fileID: 21300000, guid: 48a99ff0885f38443b682590e07bcd98, type: 3}
    - {fileID: 21300000, guid: f472a2f97f566d24b813f66c84e260be, type: 3}
  m_AnimationClipSettings:
    serializedVersion: 2
    m_AdditiveReferencePoseClip: {fileID: 0}
    m_AdditiveReferencePoseTime: 0
    m_StartTime: 0
    m_StopTime: 1.125
    m_OrientationOffsetY: 0
    m_Level: 0
    m_CycleOffset: 0
    m_HasAdditiveReferencePose: 0
    m_LoopTime: 1
    m_LoopBlend: 0
    m_LoopBlendOrientation: 0
    m_LoopBlendPositionY: 0
    m_LoopBlendPositionXZ: 0
    m_KeepOriginalOrientation: 0
    m_KeepOriginalPositionY: 1
    m_KeepOriginalPositionXZ: 0
    m_HeightFromFeet: 0
    m_Mirror: 0
  m_EditorCurves: []
  m_EulerEditorCurves: []
  m_HasGenericRootTransform: 0
  m_HasMotionFloatCurves: 0
  m_GenerateMotionCurves: 0
  m_Events: []
