%YAML 1.1
%TAG !u! tag:unity3d.com,2011:
--- !u!74 &7400000
AnimationClip:
  m_ObjectHideFlags: 0
  m_PrefabParentObject: {fileID: 0}
  m_PrefabInternal: {fileID: 0}
  m_Name: CheerMiddleMonster
  serializedVersion: 6
  m_Legacy: 0
  m_Compressed: 0
  m_UseHighQualityCurve: 1
  m_RotationCurves: []
  m_CompressedRotationCurves: []
  m_EulerCurves: []
  m_PositionCurves: []
  m_ScaleCurves: []
  m_FloatCurves: []
  m_PPtrCurves:
  - curve:
    - time: 0
      value: {fileID: 21300000, guid: f2cad6dce58ddf341b9f202f0d757906, type: 3}
    - time: 0.083333336
      value: {fileID: 21300000, guid: 2007f1d610326ad43b03ced588f3c4e2, type: 3}
    - time: 0.16666667
      value: {fileID: 21300000, guid: a34df4b9db00278419204ec09371ab2e, type: 3}
    - time: 0.25
      value: {fileID: 21300000, guid: be4cbe62fa254aa41a8d28ee641d9d78, type: 3}
    - time: 0.33333334
      value: {fileID: 21300000, guid: 72002fa6baf250c4a8a629bd2b4b8de4, type: 3}
    - time: 0.41666666
      value: {fileID: 21300000, guid: bccafca3f5e1430449af856b908c951b, type: 3}
    - time: 0.5
      value: {fileID: 21300000, guid: 11994cc97a7f4534b83ddc9cc848f164, type: 3}
    - time: 0.5833333
      value: {fileID: 21300000, guid: 892d630c61c73714ca3d7da05c86692d, type: 3}
    - time: 0.6666667
      value: {fileID: 21300000, guid: beae842f0f993ae44a9e9813312a5553, type: 3}
    - time: 0.75
      value: {fileID: 21300000, guid: 892d630c61c73714ca3d7da05c86692d, type: 3}
    - time: 0.8333333
      value: {fileID: 21300000, guid: 11994cc97a7f4534b83ddc9cc848f164, type: 3}
    - time: 0.9166667
      value: {fileID: 21300000, guid: bccafca3f5e1430449af856b908c951b, type: 3}
    - time: 1
      value: {fileID: 21300000, guid: 72002fa6baf250c4a8a629bd2b4b8de4, type: 3}
    - time: 1.0833334
      value: {fileID: 21300000, guid: be4cbe62fa254aa41a8d28ee641d9d78, type: 3}
    - time: 1.1666666
      value: {fileID: 21300000, guid: a34df4b9db00278419204ec09371ab2e, type: 3}
    - time: 1.25
      value: {fileID: 21300000, guid: 2007f1d610326ad43b03ced588f3c4e2, type: 3}
    - time: 1.3333334
      value: {fileID: 21300000, guid: f2cad6dce58ddf341b9f202f0d757906, type: 3}
    attribute: m_Sprite
    path: 
    classID: 212
    script: {fileID: 0}
  m_SampleRate: 12
  m_WrapMode: 0
  m_Bounds:
    m_Center: {x: 0, y: 0, z: 0}
    m_Extent: {x: 0, y: 0, z: 0}
  m_ClipBindingConstant:
    genericBindings:
    - path: 0
      attribute: 0
      script: {fileID: 0}
      classID: 212
      customType: 23
      isPPtrCurve: 1
    pptrCurveMapping:
    - {fileID: 21300000, guid: f2cad6dce58ddf341b9f202f0d757906, type: 3}
    - {fileID: 21300000, guid: 2007f1d610326ad43b03ced588f3c4e2, type: 3}
    - {fileID: 21300000, guid: a34df4b9db00278419204ec09371ab2e, type: 3}
    - {fileID: 21300000, guid: be4cbe62fa254aa41a8d28ee641d9d78, type: 3}
    - {fileID: 21300000, guid: 72002fa6baf250c4a8a629bd2b4b8de4, type: 3}
    - {fileID: 21300000, guid: bccafca3f5e1430449af856b908c951b, type: 3}
    - {fileID: 21300000, guid: 11994cc97a7f4534b83ddc9cc848f164, type: 3}
    - {fileID: 21300000, guid: 892d630c61c73714ca3d7da05c86692d, type: 3}
    - {fileID: 21300000, guid: beae842f0f993ae44a9e9813312a5553, type: 3}
    - {fileID: 21300000, guid: 892d630c61c73714ca3d7da05c86692d, type: 3}
    - {fileID: 21300000, guid: 11994cc97a7f4534b83ddc9cc848f164, type: 3}
    - {fileID: 21300000, guid: bccafca3f5e1430449af856b908c951b, type: 3}
    - {fileID: 21300000, guid: 72002fa6baf250c4a8a629bd2b4b8de4, type: 3}
    - {fileID: 21300000, guid: be4cbe62fa254aa41a8d28ee641d9d78, type: 3}
    - {fileID: 21300000, guid: a34df4b9db00278419204ec09371ab2e, type: 3}
    - {fileID: 21300000, guid: 2007f1d610326ad43b03ced588f3c4e2, type: 3}
    - {fileID: 21300000, guid: f2cad6dce58ddf341b9f202f0d757906, type: 3}
  m_AnimationClipSettings:
    serializedVersion: 2
    m_AdditiveReferencePoseClip: {fileID: 0}
    m_AdditiveReferencePoseTime: 0
    m_StartTime: 0
    m_StopTime: 1.4166667
    m_OrientationOffsetY: 0
    m_Level: 0
    m_CycleOffset: 0
    m_HasAdditiveReferencePose: 0
    m_LoopTime: 1
    m_LoopBlend: 0
    m_LoopBlendOrientation: 0
    m_LoopBlendPositionY: 0
    m_LoopBlendPositionXZ: 0
    m_KeepOriginalOrientation: 0
    m_KeepOriginalPositionY: 1
    m_KeepOriginalPositionXZ: 0
    m_HeightFromFeet: 0
    m_Mirror: 0
  m_EditorCurves: []
  m_EulerEditorCurves: []
  m_HasGenericRootTransform: 0
  m_HasMotionFloatCurves: 0
  m_GenerateMotionCurves: 0
  m_IsEmpty: 0
  m_Events: []
