%YAML 1.1
%TAG !u! tag:unity3d.com,2011:
--- !u!74 &7400000
AnimationClip:
  m_ObjectHideFlags: 0
  m_PrefabParentObject: {fileID: 0}
  m_PrefabInternal: {fileID: 0}
  m_Name: MiddleMonsterIdle
  serializedVersion: 6
  m_Legacy: 0
  m_Compressed: 0
  m_UseHighQualityCurve: 1
  m_RotationCurves: []
  m_CompressedRotationCurves: []
  m_EulerCurves: []
  m_PositionCurves: []
  m_ScaleCurves: []
  m_FloatCurves: []
  m_PPtrCurves:
  - curve:
    - time: 0
      value: {fileID: 21300000, guid: 63264e3bceca5464a8b62ba355320828, type: 3}
    - time: 0.083333336
      value: {fileID: 21300000, guid: 75080a4f23f1279479be3729efd6e822, type: 3}
    - time: 0.16666667
      value: {fileID: 21300000, guid: 48354cf528f7a5c43b41e2e46a87f684, type: 3}
    - time: 0.25
      value: {fileID: 21300000, guid: 96bd80eadc3f73248bb671f932a3b42e, type: 3}
    - time: 0.33333334
      value: {fileID: 21300000, guid: 24564253bd214e541b19e9594fc459ce, type: 3}
    - time: 0.41666666
      value: {fileID: 21300000, guid: 9fc431acf1d241e45bd187f23dfd2034, type: 3}
    - time: 0.5
      value: {fileID: 21300000, guid: 281c38547aaa42f45ad6ff3a0461f6b5, type: 3}
    attribute: m_Sprite
    path: 
    classID: 212
    script: {fileID: 0}
  m_SampleRate: 12
  m_WrapMode: 0
  m_Bounds:
    m_Center: {x: 0, y: 0, z: 0}
    m_Extent: {x: 0, y: 0, z: 0}
  m_ClipBindingConstant:
    genericBindings:
    - path: 0
      attribute: 0
      script: {fileID: 0}
      classID: 212
      customType: 23
      isPPtrCurve: 1
    pptrCurveMapping:
    - {fileID: 21300000, guid: 63264e3bceca5464a8b62ba355320828, type: 3}
    - {fileID: 21300000, guid: 75080a4f23f1279479be3729efd6e822, type: 3}
    - {fileID: 21300000, guid: 48354cf528f7a5c43b41e2e46a87f684, type: 3}
    - {fileID: 21300000, guid: 96bd80eadc3f73248bb671f932a3b42e, type: 3}
    - {fileID: 21300000, guid: 24564253bd214e541b19e9594fc459ce, type: 3}
    - {fileID: 21300000, guid: 9fc431acf1d241e45bd187f23dfd2034, type: 3}
    - {fileID: 21300000, guid: 281c38547aaa42f45ad6ff3a0461f6b5, type: 3}
  m_AnimationClipSettings:
    serializedVersion: 2
    m_AdditiveReferencePoseClip: {fileID: 0}
    m_AdditiveReferencePoseTime: 0
    m_StartTime: 0
    m_StopTime: 0.5833333
    m_OrientationOffsetY: 0
    m_Level: 0
    m_CycleOffset: 0
    m_HasAdditiveReferencePose: 0
    m_LoopTime: 1
    m_LoopBlend: 0
    m_LoopBlendOrientation: 0
    m_LoopBlendPositionY: 0
    m_LoopBlendPositionXZ: 0
    m_KeepOriginalOrientation: 0
    m_KeepOriginalPositionY: 1
    m_KeepOriginalPositionXZ: 0
    m_HeightFromFeet: 0
    m_Mirror: 0
  m_EditorCurves: []
  m_EulerEditorCurves: []
  m_HasGenericRootTransform: 0
  m_HasMotionFloatCurves: 0
  m_GenerateMotionCurves: 0
  m_IsEmpty: 0
  m_Events: []
