%YAML 1.1
%TAG !u! tag:unity3d.com,2011:
--- !u!78 &1
TagManager:
  serializedVersion: 2
  tags:
  - BigMonster
  - MiddleMonster
  - LittleMonster
  - Apple
  - Ball
  - Bananas
  - Cellphone
  - Glasses
  - Keys
  - Book
  - Broccoli
  - Burger
  - Carrot
  - CarToy
  - Cupcake
  - Donut
  - Eggplant
  - Hat
  - Shoe
  - Radio
  - Notes
  - TestPointer
  - Pacifier
  - ExitButton
  - ToyTrain
  - Sandwich
  - Lemon
  - Mitten
  - Guitar
  - SoccerBall
  - CoffeeMug
  - ChocolateBar
  - Cake
  - BabyBottle
  - MenuPanel
  - PlayButton
  - Canvas
  - CloneCoin
  - VideoMonster
  - RewardCoin
  - CreditCoin
  - GameLogo
  - GameControl
  - TVButton
  - IAPPanel
  - ShoppingCart
  - CoinCanvas
  layers:
  - Default
  - TransparentFX
  - Ignore Raycast
  - 
  - Water
  - UI
  - 
  - 
  - 
  - 
  - 
  - 
  - 
  - 
  - 
  - 
  - 
  - 
  - 
  - 
  - 
  - 
  - 
  - 
  - 
  - 
  - 
  - 
  - 
  - 
  - 
  - 
  m_SortingLayers:
  - name: Default
    uniqueID: 0
    locked: 0
  - name: Background
    uniqueID: 1793344709
    locked: 0
  - name: Monsters in back
    uniqueID: 2875128293
    locked: 0
  - name: Monsters in front
    uniqueID: 806972003
    locked: 0
  - name: Table
    uniqueID: 3285053549
    locked: 0
  - name: ItemsBack
    uniqueID: 1140253
    locked: 0
  - name: ItemsMiddle
    uniqueID: 2941230445
    locked: 0
  - name: ItemsFront
    uniqueID: 3203942771
    locked: 0
  - name: Menu
    uniqueID: 4095713797
    locked: 0
